{
  "project_info": {
    "project_number": "845559528291",
    "firebase_url": "https://mybuy-76956.firebaseio.com",
    "project_id": "mybuy-76956",
    "storage_bucket": "mybuy-76956.appspot.com"
  },
  "client": [
    {
      "client_info": {
        "mobilesdk_app_id": "1:845559528291:android:d1d03941a0ae4a87",
        "android_client_info": {
          "package_name": "com.mybuy"
        }
      },
      "oauth_client": [
        {
          "client_id": "845559528291-0ne21jqfsuqf89tn2s9fsamc4me0920i.apps.googleusercontent.com",
          "client_type": 3
        }
      ],
      "api_key": [
        {
          "current_key": "AIzaSyAuPYHdZCGL-mHa9tz20sjxavyou_r86x0"
        }
      ],
      "services": {
        "analytics_service": {
          "status": 1
        },
        "appinvite_service": {
          "status": 1,
          "other_platform_oauth_client": []
        },
        "ads_service": {
          "status": 2
        }
      }
    }
  ],
  "configuration_version": "1"
}